<!DOCTYPE svg PUBLIC "-//W3C//DTD SVG 20010904//EN" "http://www.w3.org/TR/2001/REC-SVG-20010904/DTD/svg10.dtd">
<svg version="1.0" xmlns="http://www.w3.org/2000/svg" width="64px" height="60px" viewBox="0 0 640 600" preserveAspectRatio="xMidYMid meet">
<g id="layer1" fill="#07a8d5" stroke="none">
 <path d="M2 527 c3 -13 36 -74 74 -135 l69 -112 125 -39 c155 -49 163 -50 168 -29 2 9 -28 70 -67 135 l-70 119 -140 42 c-77 23 -146 42 -152 42 -6 0 -9 -10 -7 -23z"/>
 </g>
<g id="layer2" fill="#9a9896" stroke="none">
 <path d="M279 577 c-25 -7 -61 -23 -80 -34 l-33 -22 29 -11 c24 -9 40 -9 81 4 90 28 158 15 224 -42 105 -89 115 -233 24 -326 -95 -98 -225 -102 -326 -10 -41 37 -55 39 -72 11 -25 -39 106 -125 204 -134 119 -11 237 55 286 162 31 65 33 179 5 241 -58 128 -208 199 -342 161z"/>
 </g>

</svg>